{
  "definitionName" : "webster:branding-webster",
  "id" : "84e9e84a-aa01-4bd8-880c-4dd4bd1527c2",
  "label" : "CFA",
  "type" : "brandingSet",
  "values" : {
    "ActionColor" : "rgb(1, 122, 205)",
    "BorderColor" : "rgb(102, 102, 102)",
    "CardBackgroundColor" : "rgba(255, 255, 255, 0)",
    "CompanyLogo" : "/file-asset/cfalogo?v=1",
    "DetailTextColor" : "rgb(0, 0, 0)",
    "ErrorFontColor" : "#ff9e9e",
    "HeaderFonts" : "Lato",
    "LinkColor" : "rgb(7, 115, 190)",
    "LoginBackgroundColor" : "rgb(244, 244, 244)",
    "LoginBackgroundImage" : "../../../../sfsites/picasso/core/external/salesforceIdentity/images/background.jpg?v=1",
    "OverlayTextColor" : "rgb(35, 31, 32)",
    "PageBackgroundColor" : "rgb(245, 245, 245)",
    "PrimaryFont" : "Lato",
    "TextColor" : "rgb(35, 31, 32)",
    "TextTransformStyle" : "none",
    "_ActionColorDarker" : "#015c9a",
    "_ActionColorTrans" : "rgba(1, 122, 205, 0.9)",
    "_HoverColor" : "rgba(1, 122, 205, 0.05)",
    "_LinkColorDarker" : "#065b97",
    "_OverlayTextColorShadow" : "#888"
  }
}