{
  "activeViewId" : "8ae5d1dc-855a-4547-abfb-49a4cebba917",
  "appPageId" : "b28b82d8-ebbd-4ad1-9e0a-67ef2907c943",
  "configurationTags" : [ ],
  "id" : "645662b7-7b26-4426-aa04-56ad976a7b21",
  "label" : "Case Detail",
  "routeType" : "detail-500",
  "type" : "route",
  "urlPrefix" : "case"
}