{
  "activeViewId" : "a4d30409-537c-48f7-8ac3-628ebd7fd1bb",
  "appPageId" : "b28b82d8-ebbd-4ad1-9e0a-67ef2907c943",
  "configurationTags" : [ ],
  "id" : "7293b46e-ceb9-4eaf-aeaf-91e5a945358b",
  "label" : "Case Related List",
  "routeType" : "relatedlist-500",
  "type" : "route",
  "urlPrefix" : "case"
}