{
  "activeViewId" : "47089e84-2faf-45a9-8d79-0b1ccca8a3e4",
  "appPageId" : "b28b82d8-ebbd-4ad1-9e0a-67ef2907c943",
  "configurationTags" : [ ],
  "id" : "8c03181c-4291-431f-9c37-fa67b1739690",
  "label" : "Dashboard Related List",
  "routeType" : "relatedlist-01Z",
  "type" : "route",
  "urlPrefix" : "dashboard"
}