{
  "activeViewId" : "836f7154-dc3b-4a63-8247-349687be791d",
  "appPageId" : "b28b82d8-ebbd-4ad1-9e0a-67ef2907c943",
  "configurationTags" : [ ],
  "id" : "a9a4afbd-e6f9-4bfd-811e-508c8ac4b42f",
  "label" : "Role Detail",
  "objectApiName" : "Role__c",
  "routeType" : "detail-a2x",
  "type" : "route",
  "urlPrefix" : "role"
}