{
  "activeViewId" : "af0da181-4b5a-4089-82d9-d36a3bcb2097",
  "appPageId" : "b28b82d8-ebbd-4ad1-9e0a-67ef2907c943",
  "configurationTags" : [ ],
  "id" : "0ad4b866-5c17-4c1d-a213-99c530d79b13",
  "label" : "Topic Catalog",
  "pageAccess" : "UseParent",
  "routeType" : "topic-catalog",
  "type" : "route",
  "urlPrefix" : "topiccatalog"
}