{
  "activeViewId" : "993a8720-7415-4f02-8c73-f08282645253",
  "appPageId" : "b28b82d8-ebbd-4ad1-9e0a-67ef2907c943",
  "configurationTags" : [ ],
  "id" : "bcc55133-a522-4bd7-b9cd-a2ace36e4cf9",
  "label" : "Volunteer Application Detail",
  "objectApiName" : "Job_Application__c",
  "routeType" : "detail-a2u",
  "type" : "route",
  "urlPrefix" : "job-application"
}