{
  "activeViewId" : "023e7910-fcb9-4920-9a35-50991ac784db",
  "appPageId" : "92034fee-2a5a-4602-b58b-7f635d198d78",
  "configurationTags" : [ ],
  "id" : "cc7e229e-8b3f-4519-825f-7fd8a61368cf",
  "label" : "Account Management",
  "routeType" : "account-management",
  "type" : "route",
  "urlPrefix" : "account-management"
}