{
  "activeViewId" : "fa9a6ade-b3d0-40f1-b599-f064c0fa91b4",
  "appPageId" : "92034fee-2a5a-4602-b58b-7f635d198d78",
  "configurationTags" : [ ],
  "id" : "e394118c-462e-4af6-89cc-a29a90d2ff0e",
  "label" : "Campaign Detail",
  "routeType" : "detail-701",
  "type" : "route",
  "urlPrefix" : "campaign"
}