{
  "activeViewId" : "84685af6-04ae-4dc0-8100-660206554f32",
  "appPageId" : "92034fee-2a5a-4602-b58b-7f635d198d78",
  "configurationTags" : [ ],
  "id" : "7c805352-01f1-475f-9af4-721cb73bba6d",
  "label" : "Campaign List",
  "routeType" : "list-701",
  "type" : "route",
  "urlPrefix" : "campaign"
}