{
  "activeViewId" : "4e9a3337-f034-479c-af7f-84fb1c2b0234",
  "appPageId" : "92034fee-2a5a-4602-b58b-7f635d198d78",
  "configurationTags" : [ ],
  "id" : "ac4f4126-cad7-411b-bc70-51c5125fc645",
  "label" : "Messages",
  "routeType" : "messages",
  "type" : "route",
  "urlPrefix" : "messages"
}