{
  "activeViewId" : "dcb3b9d7-554d-4b57-88af-364cde2fbcc6",
  "appPageId" : "7658b2bb-a1c4-48ea-a112-4dd5bc438eb7",
  "configurationTags" : [ ],
  "id" : "7aa425a1-48f2-41a1-9da8-1e2d4830faa0",
  "label" : "Register",
  "routeType" : "self-register",
  "type" : "route",
  "urlPrefix" : "SelfRegister"
}