{
  "activeViewId" : "1d093eb7-af7e-4351-85bb-6f9ba7bf4733",
  "appPageId" : "92034fee-2a5a-4602-b58b-7f635d198d78",
  "configurationTags" : [ ],
  "id" : "2bd85c46-8e23-429d-af55-f2b818dbae89",
  "label" : "Stream Related List",
  "routeType" : "relatedlist-0Fq",
  "type" : "route",
  "urlPrefix" : "streams"
}