{
  "activeViewId" : "f74c3444-8ecb-46f1-a41a-1059546c0af4",
  "appPageId" : "92034fee-2a5a-4602-b58b-7f635d198d78",
  "configurationTags" : [ ],
  "id" : "9faef6ef-cfe6-4f7e-956b-769db8879d24",
  "label" : "Top Articles",
  "pageAccess" : "UseParent",
  "routeType" : "top-articles",
  "type" : "route",
  "urlPrefix" : "toparticles"
}