{
  "appPageId" : "48a8bf6c-7c92-4b70-af72-9627cd289bfa",
  "componentName" : "siteforce:sldsOneColLayout",
  "id" : "429d7ae4-2218-4195-b8f3-028e6d438e0a",
  "label" : "Dashboard Related List",
  "regions" : [ {
    "id" : "3eb68b5f-6865-4cc0-a8fa-60c271dfdf85",
    "regionName" : "header",
    "type" : "region"
  }, {
    "components" : [ {
      "componentAttributes" : {
        "customTitle" : "",
        "parentRecordId" : "{!recordId}",
        "relatedListName" : "{!relationshipApiName}",
        "showBreadCrumbs" : true,
        "showCustomTitle" : false,
        "showManualRefreshButton" : true,
        "showRowNumbers" : true
      },
      "componentName" : "forceCommunity:relatedList",
      "id" : "13cc74ea-ceb4-4254-8848-24b0101dc705",
      "renderPriority" : "NEUTRAL",
      "renditionMap" : { },
      "type" : "component"
    } ],
    "id" : "f1f157fe-91df-4529-b222-e223de613ada",
    "regionName" : "content",
    "type" : "region"
  }, {
    "id" : "1ad66ae4-c4af-4f2b-a36f-eb66c71d4f71",
    "regionName" : "footer",
    "type" : "region"
  } ],
  "themeLayoutType" : "Inner",
  "type" : "view",
  "viewType" : "relatedlist-01Z"
}