{
  "appPageId" : "48a8bf6c-7c92-4b70-af72-9627cd289bfa",
  "componentName" : "siteforce:sldsTwoCol66Layout",
  "id" : "96a213b3-d041-45b1-bb10-4c4ff11c7a75",
  "label" : "Home",
  "regions" : [ {
    "components" : [ {
      "componentAttributes" : {
        "height" : "1860",
        "recordId" : "01Z3Z000000i4nIUAQ"
      },
      "componentName" : "forceCommunity:dashboard",
      "id" : "146d0ce8-4e16-40be-b6c8-e50a99988308",
      "renderPriority" : "NEUTRAL",
      "renditionMap" : { },
      "type" : "component"
    } ],
    "id" : "efa4f585-fe06-4138-a90f-8c916b596a85",
    "regionName" : "header",
    "type" : "region"
  }, {
    "components" : [ {
      "componentAttributes" : {
        "enableInlineEdit" : true,
        "filterName" : "OPEN",
        "layout" : "FULL",
        "pageSize" : 10,
        "scope" : "Task",
        "showActionBar" : true,
        "showDisplay" : "showall",
        "showSearchBar" : true
      },
      "componentName" : "forceCommunity:objectHome",
      "id" : "199c986f-aa90-4907-81d8-e2436d5845e0",
      "renderPriority" : "NEUTRAL",
      "renditionMap" : { },
      "type" : "component"
    } ],
    "id" : "2ebefee3-2aa3-424b-b761-de4f9a4f9ca1",
    "regionName" : "content",
    "type" : "region"
  }, {
    "components" : [ {
      "componentAttributes" : { },
      "componentName" : "c:SocietyHub_Connexions",
      "id" : "84d8ce65-74d7-457d-ba46-55fd2df6bfd0",
      "renderPriority" : "NEUTRAL",
      "renditionMap" : { },
      "type" : "component"
    } ],
    "id" : "f0338572-98ba-4a48-baef-64e58940c5e4",
    "regionName" : "sidebar",
    "type" : "region"
  }, {
    "id" : "0193616c-625e-4499-8c83-dcdd9841b20c",
    "regionName" : "footer",
    "type" : "region"
  }, {
    "components" : [ {
      "componentAttributes" : {
        "customHeadTags" : "",
        "description" : "",
        "title" : "Home"
      },
      "componentName" : "forceCommunity:seoAssistant",
      "id" : "f317ac27-462b-49ba-aac6-61ea0a529072",
      "renditionMap" : { },
      "type" : "component"
    } ],
    "id" : "838c8441-97f5-4f09-9c29-5188c2a37d1c",
    "regionName" : "sfdcHiddenRegion",
    "type" : "region"
  } ],
  "themeLayoutType" : "Inner",
  "type" : "view",
  "viewType" : "home"
}