{
  "appPageId" : "48a8bf6c-7c92-4b70-af72-9627cd289bfa",
  "componentName" : "siteforce:sldsOneColLayout",
  "id" : "13adae9d-ba4e-479d-92d9-a93b2c16f623",
  "label" : "Quip Docs Related List",
  "regions" : [ {
    "id" : "fb5fc37e-7eb1-45f2-a6ba-6a6076743f12",
    "regionName" : "header",
    "type" : "region"
  }, {
    "components" : [ {
      "componentAttributes" : {
        "parentRecordId" : "{!recordId}"
      },
      "componentName" : "forceCommunity:relatedQuipItemsView",
      "id" : "ddae3495-056b-4bad-9318-899eb14934b8",
      "renderPriority" : "NEUTRAL",
      "renditionMap" : { },
      "type" : "component"
    } ],
    "id" : "22c8f8ad-2260-468a-8750-be6766067bfb",
    "regionName" : "content",
    "type" : "region"
  }, {
    "id" : "d60851df-81c2-4425-8b3a-ed159d8590d3",
    "regionName" : "footer",
    "type" : "region"
  } ],
  "themeLayoutType" : "Inner",
  "type" : "view",
  "viewType" : "extrelated-quip"
}