{
  "activeViewId" : "560b6b23-2e40-4d1b-adcb-5ea337aa7351",
  "appPageId" : "07623fc2-e7b6-4ae6-852e-03d1b49754a4",
  "configurationTags" : [ ],
  "id" : "f5cf4950-2360-402e-8ee0-66f0acb1f791",
  "label" : "File Related List",
  "routeType" : "relatedlist-069",
  "type" : "route",
  "urlPrefix" : "contentdocument"
}