{
  "activeViewId" : "d453a4d9-6a95-44a4-811e-0cefb9ca2ee8",
  "appPageId" : "07623fc2-e7b6-4ae6-852e-03d1b49754a4",
  "configurationTags" : [ ],
  "id" : "b6c1fde5-4f87-480e-bd1f-80dacb0dcaad",
  "label" : "My Account",
  "routeType" : "my-account",
  "type" : "route",
  "urlPrefix" : "comm-my-account"
}