{
  "activeViewId" : "c715a3ae-969e-452d-a656-b009c8dfd514",
  "appPageId" : "07623fc2-e7b6-4ae6-852e-03d1b49754a4",
  "configurationTags" : [ ],
  "id" : "0d81556d-027a-454e-b255-c2dd0a7f3429",
  "label" : "Quip Docs Related List",
  "pageAccess" : "UseParent",
  "routeType" : "extrelated-quip",
  "type" : "route",
  "urlPrefix" : "quip"
}