{
  "activeViewId" : "57fda61c-db0b-48d9-b52d-e2d02f9c2b81",
  "appPageId" : "07623fc2-e7b6-4ae6-852e-03d1b49754a4",
  "configurationTags" : [ ],
  "id" : "5514fe4c-5a6d-4bfd-aa93-2979bd11c7ad",
  "label" : "Search",
  "pageAccess" : "UseParent",
  "routeType" : "global-search",
  "type" : "route",
  "urlPrefix" : "global-search"
}