{
  "activeViewId" : "1fa0d39b-985e-41ba-b69b-afe10983489a",
  "appPageId" : "07623fc2-e7b6-4ae6-852e-03d1b49754a4",
  "configurationTags" : [ ],
  "id" : "cc0623e4-e654-4478-813d-f7a86cf12c4f",
  "label" : "User Profile",
  "routeType" : "detail-005",
  "type" : "route",
  "urlPrefix" : "profile"
}