{
  "appPageId" : "07623fc2-e7b6-4ae6-852e-03d1b49754a4",
  "componentName" : "siteforce:sldsOneColLayout",
  "id" : "a93838a0-8733-4663-87c1-e131b0d3a03b",
  "label" : "Case Related List",
  "regions" : [ {
    "id" : "ccf43a58-4638-47b4-b73b-56ee3ed773ad",
    "regionName" : "header",
    "type" : "region"
  }, {
    "components" : [ {
      "componentAttributes" : {
        "customTitle" : "",
        "parentRecordId" : "{!recordId}",
        "relatedListName" : "{!relationshipApiName}",
        "showBreadCrumbs" : true,
        "showCustomTitle" : false,
        "showManualRefreshButton" : true,
        "showRowNumbers" : true
      },
      "componentName" : "forceCommunity:relatedList",
      "id" : "8cb4556c-6a62-4449-95c6-0803edc5dfb2",
      "renderPriority" : "NEUTRAL",
      "renditionMap" : { },
      "type" : "component"
    } ],
    "id" : "491f36f4-6e37-4959-b9a1-5ba330f7105d",
    "regionName" : "content",
    "type" : "region"
  }, {
    "id" : "796a7f2d-31a1-4636-99fa-a5785ccc86f6",
    "regionName" : "footer",
    "type" : "region"
  } ],
  "themeLayoutType" : "Inner",
  "type" : "view",
  "viewType" : "relatedlist-500"
}