{
  "appPageId" : "be9ec60d-10ba-4af0-893f-c6bbc0e2d3ef",
  "componentName" : "siteforce:sldsOneColLayout",
  "id" : "23f15e41-7b2f-4512-8afd-23dc2f31e002",
  "label" : "File List",
  "regions" : [ {
    "id" : "5a5cd0d2-a418-4252-b666-834fe0beb018",
    "regionName" : "header",
    "type" : "region"
  }, {
    "components" : [ {
      "componentAttributes" : {
        "pageSize" : 25
      },
      "componentName" : "forceCommunity:filesList",
      "id" : "17d804e8-add3-41dd-90a3-a8c3afad8691",
      "renderPriority" : "NEUTRAL",
      "renditionMap" : { },
      "type" : "component"
    } ],
    "id" : "c0ef424f-8d5a-47b1-bb40-124f08cf27ae",
    "regionName" : "content",
    "type" : "region"
  }, {
    "id" : "79a9f2ee-f31d-4975-a462-ef95454ba77c",
    "regionName" : "footer",
    "type" : "region"
  } ],
  "themeLayoutType" : "Inner",
  "type" : "view",
  "viewType" : "list-069"
}