{
  "appPageId" : "1a7c7de1-4c59-4a1e-9358-470efb6d7f4d",
  "componentName" : "siteforce:sldsOneColLayout",
  "id" : "2078f3c0-af33-40a4-9da1-03f4c0a516ae",
  "label" : "Login",
  "regions" : [ {
    "components" : [ {
      "componentAttributes" : { },
      "componentName" : "salesforceIdentity:communityLogo2",
      "id" : "f631e6cd-6feb-471e-ad21-0f0f8199183e",
      "renderPriority" : "NEUTRAL",
      "renditionMap" : { },
      "type" : "component"
    }, {
      "componentAttributes" : {
        "forgotPasswordLabel" : "Forgot your password?",
        "forgotPasswordUrl" : "/ForgotPassword",
        "loginButtonLabel" : "Log in",
        "passwordLabel" : "Password",
        "selfRegisterLabel" : "Not a member?",
        "selfRegisterUrl" : "/SelfRegister",
        "startUrl" : "",
        "usernameLabel" : "Username"
      },
      "componentName" : "salesforceIdentity:loginForm2",
      "id" : "00434bbf-3600-4ed9-9b15-7f7fa7e214ec",
      "renderPriority" : "NEUTRAL",
      "renditionMap" : { },
      "type" : "component"
    }, {
      "componentAttributes" : {
        "headerText" : "",
        "showHeader" : false
      },
      "componentName" : "salesforceIdentity:socialLogin2",
      "id" : "358f3d62-7d84-4128-b9d9-e3babe82c794",
      "renderPriority" : "NEUTRAL",
      "renditionMap" : { },
      "type" : "component"
    }, {
      "componentAttributes" : {
        "employeeLoginLinkLabel" : "Are you an employee? Login here"
      },
      "componentName" : "salesforceIdentity:employeeLoginLink2",
      "id" : "72ab2351-c2d1-44f3-bfa9-08ab8dafb3f2",
      "renderPriority" : "NEUTRAL",
      "renditionMap" : { },
      "type" : "component"
    } ],
    "id" : "5c5fdd42-72ff-4dee-9c32-ed2ab42b49be",
    "regionName" : "content",
    "type" : "region"
  }, {
    "components" : [ {
      "componentAttributes" : {
        "customHeadTags" : "",
        "description" : "",
        "title" : "Login"
      },
      "componentName" : "forceCommunity:seoAssistant",
      "id" : "c8e97843-f3e3-4ccf-a258-a55aa90814b6",
      "renditionMap" : { },
      "type" : "component"
    } ],
    "id" : "af0a7bbd-662d-464a-a037-2b048d4b6edb",
    "regionName" : "sfdcHiddenRegion",
    "type" : "region"
  } ],
  "themeLayoutType" : "Login",
  "type" : "view",
  "viewType" : "login-home"
}