{
  "appPageId" : "be9ec60d-10ba-4af0-893f-c6bbc0e2d3ef",
  "componentName" : "siteforce:sldsOneColLayout",
  "id" : "5e333832-008c-4748-ab98-db73069e2bd1",
  "label" : "Messages",
  "regions" : [ {
    "components" : [ {
      "componentAttributes" : { },
      "componentName" : "forceChatter:messages",
      "id" : "362ee90a-6d43-47af-bb14-278abaab4cc2",
      "renderPriority" : "NEUTRAL",
      "renditionMap" : { },
      "type" : "component"
    } ],
    "id" : "899d2db6-f803-4186-a97d-1e53fa085c78",
    "regionName" : "content",
    "type" : "region"
  } ],
  "themeLayoutType" : "Inner",
  "type" : "view",
  "viewType" : "messages"
}