{
  "appPageId" : "b28b82d8-ebbd-4ad1-9e0a-67ef2907c943",
  "componentName" : "siteforce:sldsOneColLayout",
  "id" : "8ae5d1dc-855a-4547-abfb-49a4cebba917",
  "label" : "Case Detail",
  "regions" : [ {
    "id" : "de4a4b91-9b15-42af-ab38-16f509cbe600",
    "regionName" : "header",
    "type" : "region"
  }, {
    "components" : [ {
      "componentAttributes" : {
        "recordId" : "{!recordId}"
      },
      "componentName" : "forceCommunity:recordHeadline",
      "id" : "c61837b8-3013-4a94-9a75-e902f399fe6c",
      "renderPriority" : "NEUTRAL",
      "renditionMap" : { },
      "type" : "component"
    }, {
      "componentAttributes" : {
        "detailsTabLabel" : "Details",
        "discussionsTabLabel" : "Feed",
        "recordId" : "{!recordId}",
        "relatedTabLabel" : "Related",
        "tab1Type" : "details",
        "tab2Type" : "related",
        "tab3Type" : "chatter",
        "tab4Type" : "none",
        "timelineTabLabel" : "Activity"
      },
      "componentName" : "forceCommunity:recordHomeTabs",
      "id" : "3d372b9a-3809-49f3-b088-77ee4201d05e",
      "renderPriority" : "NEUTRAL",
      "renditionMap" : { },
      "type" : "component"
    } ],
    "id" : "1708de55-723d-4c5d-a06f-20aa48c04094",
    "regionName" : "content",
    "type" : "region"
  }, {
    "id" : "b7819ddd-e953-4a3f-ab27-ce3d8588f1ad",
    "regionName" : "footer",
    "type" : "region"
  }, {
    "components" : [ {
      "componentAttributes" : {
        "customHeadTags" : "",
        "description" : "",
        "title" : "{!Record._Object}: {!Record._Title}"
      },
      "componentName" : "forceCommunity:seoAssistant",
      "id" : "75d6c5e9-add2-4ede-a528-9f1143a68e3d",
      "renditionMap" : { },
      "type" : "component"
    } ],
    "id" : "f35bbd3c-e5bd-4822-8b28-c39b4a664cea",
    "regionName" : "sfdcHiddenRegion",
    "type" : "region"
  } ],
  "themeLayoutType" : "Inner",
  "type" : "view",
  "viewType" : "detail-500"
}