{
  "appPageId" : "b28b82d8-ebbd-4ad1-9e0a-67ef2907c943",
  "componentName" : "siteforce:sldsOneColLayout",
  "id" : "993a8720-7415-4f02-8c73-f08282645253",
  "label" : "DetailViewVolunteer",
  "regions" : [ {
    "id" : "bc8875c3-2efb-4573-a562-679431d8f1ba",
    "regionName" : "header",
    "type" : "region"
  }, {
    "components" : [ {
      "componentAttributes" : {
        "flowArguments" : "[{\"label\":\"recordId\",\"dataType\":\"String\",\"supportsRecordId\":true,\"value\":\"{!Record.Id}\"}]",
        "flowLayout" : "oneColumn",
        "flowName" : "My_Application"
      },
      "componentName" : "forceCommunity:flowCommunity",
      "id" : "76d8d1ee-0ceb-4a4d-a911-a5243f323e70",
      "renderPriority" : "NEUTRAL",
      "renditionMap" : { },
      "type" : "component"
    } ],
    "id" : "85b83501-76a1-49a2-b3d2-080a8abfb4fe",
    "regionName" : "content",
    "type" : "region"
  }, {
    "id" : "be36f1e4-7667-40e3-a363-ec300902b7e9",
    "regionName" : "footer",
    "type" : "region"
  }, {
    "components" : [ {
      "componentAttributes" : {
        "customHeadTags" : "",
        "description" : "",
        "title" : ""
      },
      "componentName" : "forceCommunity:seoAssistant",
      "id" : "73d9165a-ced0-4d73-8fee-c6dc08efba74",
      "renditionMap" : { },
      "type" : "component"
    } ],
    "id" : "3833ce87-e3f5-4796-b898-25e68b248f59",
    "regionName" : "sfdcHiddenRegion",
    "type" : "region"
  } ],
  "themeLayoutType" : "Inner",
  "type" : "view",
  "viewType" : "detail-a2u"
}