{
  "appPageId" : "b28b82d8-ebbd-4ad1-9e0a-67ef2907c943",
  "componentName" : "siteforce:sldsOneColLayout",
  "id" : "b949cc52-9031-4b4f-89fd-b3f724bc3916",
  "label" : "File Detail",
  "regions" : [ {
    "id" : "8b7590e7-4596-4bd3-9249-01870c339e02",
    "regionName" : "header",
    "type" : "region"
  }, {
    "components" : [ {
      "componentAttributes" : { },
      "componentName" : "forceCommunity:fileDetailPage",
      "id" : "677d7573-b6ec-4673-8d09-f592e7d3b9d7",
      "renderPriority" : "NEUTRAL",
      "renditionMap" : { },
      "type" : "component"
    } ],
    "id" : "91b61a81-24c7-46d0-8146-2aa57d48b150",
    "regionName" : "content",
    "type" : "region"
  }, {
    "id" : "96cc6506-c399-4723-bd2c-753a5bb0b562",
    "regionName" : "footer",
    "type" : "region"
  } ],
  "themeLayoutType" : "Inner",
  "type" : "view",
  "viewType" : "detail-069"
}