{
  "appPageId" : "b28b82d8-ebbd-4ad1-9e0a-67ef2907c943",
  "componentName" : "siteforce:dynamicLayout",
  "id" : "38c36512-fba7-44e4-8eca-99f0dde44a3c",
  "label" : "My Account",
  "regions" : [ {
    "id" : "824d3e7c-f9c4-4b82-a2f9-bf14da957e58",
    "regionName" : "header",
    "type" : "region"
  }, {
    "components" : [ {
      "componentAttributes" : {
        "background" : "background: rgba(0,0,0,0)",
        "backgroundOverlay" : "rgba(0,0,0,0.5)",
        "contentAreaWidth" : 100,
        "sectionConfig" : {
          "UUID" : "f50923b5-391f-468f-912b-a400d18285c2",
          "columns" : [ {
            "UUID" : "04cb7aa6-ab70-497c-86e6-4db0a6c9a54d",
            "columnKey" : "col1",
            "columnName" : "column 1",
            "columnWidth" : "12",
            "seedComponents" : [ {
              "attributes" : {
                "recordId" : "{!CurrentUser.accountId}",
                "sfdc:identifier" : "forceCommunity_recordHeadline"
              },
              "fqn" : "forceCommunity:recordHeadline"
            }, {
              "attributes" : {
                "recordId" : "{!CurrentUser.accountId}",
                "sfdc:identifier" : "forceCommunity_recordHomeTabs"
              },
              "fqn" : "forceCommunity:recordHomeTabs"
            } ]
          } ]
        },
        "sectionHeight" : 32
      },
      "componentName" : "forceCommunity:section",
      "id" : "f50923b5-391f-468f-912b-a400d18285c2",
      "regions" : [ {
        "id" : "04cb7aa6-ab70-497c-86e6-4db0a6c9a54d",
        "regionLabel" : "column 1",
        "regionName" : "col1",
        "renditionMap" : { },
        "type" : "region"
      } ],
      "renderPriority" : "NEUTRAL",
      "renditionMap" : { },
      "type" : "component"
    } ],
    "id" : "dc7949b6-90d3-417d-90c0-9a0c3a270299",
    "regionName" : "content",
    "type" : "region"
  }, {
    "id" : "32b4b86b-4246-4050-bad0-5e92d211c638",
    "regionName" : "footer",
    "type" : "region"
  } ],
  "themeLayoutType" : "Inner",
  "type" : "view",
  "viewType" : "my-account"
}