{
  "appPageId" : "b28b82d8-ebbd-4ad1-9e0a-67ef2907c943",
  "componentName" : "siteforce:sldsOneColLayout",
  "id" : "29f6920e-432b-4816-a9bc-01c7a2421815",
  "label" : "Report Builder",
  "regions" : [ {
    "id" : "801d3a7a-6c07-44d8-998f-f68d8b050f70",
    "regionName" : "header",
    "type" : "region"
  }, {
    "components" : [ {
      "componentAttributes" : {
        "recordId" : "{!recordId}"
      },
      "componentName" : "forceCommunity:reportBuilder",
      "id" : "05696b81-4957-4e3e-a72d-46cdbd111e93",
      "renderPriority" : "NEUTRAL",
      "renditionMap" : { },
      "type" : "component"
    } ],
    "id" : "2cb1a5b3-af5d-498d-af18-85076da6a638",
    "regionName" : "content",
    "type" : "region"
  }, {
    "id" : "c8131faf-b14f-46cc-9fed-3efad7bc7f73",
    "regionName" : "footer",
    "type" : "region"
  } ],
  "themeLayoutType" : "Inner",
  "type" : "view",
  "viewType" : "createreport"
}