{
  "appPageId" : "b28b82d8-ebbd-4ad1-9e0a-67ef2907c943",
  "componentName" : "siteforce:sldsOneColLayout",
  "id" : "80a20e1b-c7f8-466a-95dc-5979fb817dca",
  "label" : "Role List",
  "regions" : [ {
    "id" : "d5aa2aea-ad4a-4f50-a249-7c6200079224",
    "regionName" : "header",
    "type" : "region"
  }, {
    "components" : [ {
      "componentAttributes" : {
        "enableInlineEdit" : false,
        "filterName" : "00Bf1000003ysTBEAY",
        "layout" : "STANDARD",
        "pageSize" : 100,
        "scope" : "Role__c",
        "showActionBar" : true,
        "showChartsPanel" : true,
        "showDisplay" : "showall",
        "showFilterPanel" : true,
        "showImageIcon" : true,
        "showManualRefreshButton" : true,
        "showObjectName" : true,
        "showPinnedList" : false,
        "showSearchBar" : true
      },
      "componentName" : "forceCommunity:objectHome",
      "id" : "76b18ba1-2e9e-4bd8-a3c3-ba61bd73ac97",
      "renderPriority" : "NEUTRAL",
      "renditionMap" : { },
      "type" : "component"
    } ],
    "id" : "867361db-c076-48c7-b935-fbb8b3d44821",
    "regionName" : "content",
    "type" : "region"
  }, {
    "id" : "f0816399-eec7-4db8-a8d4-3d84479e3726",
    "regionName" : "footer",
    "type" : "region"
  } ],
  "themeLayoutType" : "Inner",
  "type" : "view",
  "viewType" : "list-a2x"
}