{
  "appPageId" : "b28b82d8-ebbd-4ad1-9e0a-67ef2907c943",
  "componentName" : "siteforce:sldsOneColLayout",
  "id" : "5d734884-e475-451a-8828-8e778e45c2f2",
  "label" : "User List",
  "regions" : [ {
    "id" : "ff0fcbc0-5d0b-4713-a7c6-2724cc836207",
    "regionName" : "header",
    "type" : "region"
  }, {
    "id" : "720b5b46-93dc-4873-a133-d880d1622e83",
    "regionName" : "content",
    "type" : "region"
  }, {
    "id" : "ac6e14aa-bf11-4e25-81b1-2b2cb516d2d3",
    "regionName" : "footer",
    "type" : "region"
  } ],
  "themeLayoutType" : "Inner",
  "type" : "view",
  "viewType" : "list-005"
}