{
  "activeBrandingSetId" : "186adae0-a77b-44f5-a027-3bc1620f4afd",
  "customCSS" : "",
  "developerName" : "prm",
  "id" : "08ee5d02-ef9b-476b-96c3-2770527d9e63",
  "label" : "Partner Central",
  "layouts" : {
    "Inner" : "ecdffccb-e344-4346-93d7-44b1c37001e7",
    "Login" : "0d77b5e0-49ff-44b6-98b6-31a7b5fbdf29",
    "ServiceNotAvailable" : "bd99bb7d-8b08-4f0d-a191-8d97387d4cd0"
  },
  "type" : "theme",
  "views" : [ {
    "componentAttributes" : { },
    "componentName" : "salesforceIdentity:loginBody2",
    "id" : "0d77b5e0-49ff-44b6-98b6-31a7b5fbdf29",
    "label" : "Login",
    "regions" : [ {
      "id" : "691b1a68-8ea9-4e77-b68e-06106c564235",
      "regionName" : "header",
      "type" : "region"
    }, {
      "id" : "ce97d79c-3052-44e0-8e8b-42b759693d92",
      "regionName" : "content",
      "type" : "region"
    }, {
      "id" : "5d13ce49-9497-469d-9241-b29f13ab631f",
      "regionName" : "footer",
      "type" : "region"
    } ],
    "type" : "view"
  }, {
    "componentAttributes" : {
      "IsDefaultHeaderHidden" : false,
      "IsDefaultHeaderPositionFixed" : true,
      "IsDefaultNotificationsHidden" : false,
      "IsSearchBarHidden" : false,
      "fixedPageWidth" : 1440,
      "isPageWidthFixed" : true
    },
    "componentName" : "siteforce:prmBody",
    "id" : "ecdffccb-e344-4346-93d7-44b1c37001e7",
    "label" : "Default",
    "regions" : [ {
      "id" : "3cdbffb5-17a1-4f71-b196-953aaa9998bd",
      "regionName" : "customHeader",
      "type" : "region"
    }, {
      "components" : [ {
        "componentAttributes" : {
          "maxAutoCompleteResults" : 5,
          "searchLabel" : "Search...",
          "searchObjects" : [ {
            "isPublic" : false,
            "name" : "ContentDocument"
          }, {
            "isPublic" : true,
            "name" : "Account"
          }, {
            "isPublic" : true,
            "name" : "Contact"
          }, {
            "isPublic" : true,
            "name" : "Account"
          } ]
        },
        "componentName" : "forceCommunity:globalSearchInput",
        "id" : "e3d3688f-a546-49ac-a9a6-a1b63d44b7cb",
        "renditionMap" : { },
        "type" : "component"
      } ],
      "id" : "64476d65-10fc-4dfd-899e-cc12e12931ac",
      "regionName" : "search",
      "type" : "region"
    }, {
      "components" : [ {
        "componentAttributes" : {
          "accountManagementLabel" : "Account Management",
          "communityBuilderLabel" : "Experience Builder",
          "communitySetupLabel" : "Salesforce Setup",
          "contactSupportLabel" : "Contact Support",
          "filterName" : "MyCases",
          "homeLabel" : "Home",
          "includeContactSupport" : false,
          "includeMessages" : false,
          "loginLabel" : "Login",
          "logoutLabel" : "Logout",
          "myAccountLabel" : "My Account",
          "showAccountManagement" : true,
          "showUserSettings" : false,
          "userSettingsLabel" : "My Settings",
          "viewProfileLabel" : "My Profile"
        },
        "componentName" : "selfService:userProfileMenu",
        "id" : "f6ae66b3-20fa-4359-987c-888790e5798e",
        "renditionMap" : { },
        "type" : "component"
      } ],
      "id" : "6c278186-649d-4243-9da6-962e0b64f657",
      "regionName" : "profileMenu",
      "type" : "region"
    }, {
      "components" : [ {
        "componentAttributes" : {
          "NavigationMenuEditorRefresh" : "Default_Navigation7",
          "hideAppLauncher" : true,
          "hideHomeText" : false
        },
        "componentName" : "forceCommunity:globalNavigation",
        "id" : "ab00d639-ce38-4988-824f-57ad2c3029d6",
        "renditionMap" : { },
        "type" : "component"
      } ],
      "id" : "0c7e593f-91bc-401b-bc93-3ff83c81fc02",
      "regionName" : "navBar",
      "type" : "region"
    }, {
      "id" : "9a51c00d-7546-40e4-98e0-e19bce80cec9",
      "regionName" : "customRegion",
      "type" : "region"
    }, {
      "id" : "928c8549-ddea-472d-94cb-56330868afda",
      "regionName" : "footer",
      "type" : "region"
    } ],
    "type" : "view"
  }, {
    "componentAttributes" : {
      "fixedPageWidth" : 1170,
      "headerBgColor" : "rgba(0, 0, 0, 0)",
      "isHeaderPinned" : false,
      "isHeroUnderHeader" : false,
      "isPageWidthFixed" : true,
      "showHeader" : true,
      "showHero" : true
    },
    "componentName" : "siteforce:themeLayoutStarter",
    "id" : "bd99bb7d-8b08-4f0d-a191-8d97387d4cd0",
    "label" : "ServiceNotAvailable",
    "regions" : [ {
      "id" : "099842d3-40fe-4f41-aa00-85895cdb3a69",
      "regionName" : "themeHeader",
      "type" : "region"
    }, {
      "id" : "65118ab2-1162-40c6-b27b-30ae5d035bf8",
      "regionName" : "themeFooter",
      "type" : "region"
    } ],
    "type" : "view"
  } ]
}