{
  "activeViewId" : "280e1984-0bf6-4eec-a741-cfc06772c00a",
  "appPageId" : "48a8bf6c-7c92-4b70-af72-9627cd289bfa",
  "configurationTags" : [ ],
  "id" : "7f06b0fb-6213-425a-8089-13e575f24360",
  "label" : "Case List",
  "routeType" : "list-500",
  "type" : "route",
  "urlPrefix" : "case"
}