{
  "activeViewId" : "f13aac32-b2d8-4aa0-afb5-6260b007e67a",
  "appPageId" : "48a8bf6c-7c92-4b70-af72-9627cd289bfa",
  "configurationTags" : [ ],
  "id" : "819da4bb-c241-45ec-9b41-dfcc124d24d5",
  "label" : "Report Builder",
  "routeType" : "createreport",
  "type" : "route",
  "urlPrefix" : "createreport"
}