{
  "activeViewId" : "72f409d9-688c-4684-a485-e141e7b920d5",
  "appPageId" : "48a8bf6c-7c92-4b70-af72-9627cd289bfa",
  "configurationTags" : [ ],
  "id" : "22a38b15-98e3-4898-aae4-3e094c403fa4",
  "label" : "Report Detail",
  "routeType" : "detail-00O",
  "type" : "route",
  "urlPrefix" : "report"
}