{
  "activeViewId" : "916fe2e5-51d1-4f1f-bbe9-c8d594ca67d7",
  "appPageId" : "48a8bf6c-7c92-4b70-af72-9627cd289bfa",
  "configurationTags" : [ ],
  "id" : "419cf431-ddfe-403d-b896-ef91361f6897",
  "label" : "User Profile",
  "routeType" : "detail-005",
  "type" : "route",
  "urlPrefix" : "profile"
}