{
  "appPageId" : "c4703a2e-936f-4774-b03d-fb11ecfb7597",
  "componentName" : "siteforce:sldsOneColLayout",
  "id" : "7e1c558d-10c2-4ca8-965f-449bb6fd7b2b",
  "label" : "Dashboard List",
  "regions" : [ {
    "id" : "bb0b78d5-f485-47e2-9cf6-a9cd6798f736",
    "regionName" : "header",
    "type" : "region"
  }, {
    "components" : [ {
      "componentAttributes" : { },
      "componentName" : "forceCommunity:dashboardList",
      "id" : "6a2e9539-2b94-434f-a345-464d7c805f35",
      "renderPriority" : "NEUTRAL",
      "renditionMap" : { },
      "type" : "component"
    } ],
    "id" : "86f53756-22f7-4d70-b6e8-ec89b63476e2",
    "regionName" : "content",
    "type" : "region"
  }, {
    "id" : "263d9de1-2e31-45c4-8a52-48e0631a7b68",
    "regionName" : "footer",
    "type" : "region"
  } ],
  "themeLayoutType" : "Inner",
  "type" : "view",
  "viewType" : "list-01Z"
}