{
  "appPageId" : "c4703a2e-936f-4774-b03d-fb11ecfb7597",
  "componentName" : "siteforce:sldsOneColLayout",
  "id" : "c907989f-99bc-4390-b8ee-345eab74d673",
  "label" : "New Application",
  "regions" : [ {
    "id" : "12364760-cd65-41d3-ab26-1f79c8f2a79a",
    "regionName" : "header",
    "type" : "region"
  }, {
    "components" : [ {
      "componentAttributes" : { },
      "componentName" : "c:VM_BERTProfile",
      "id" : "ac9f6f9d-87f3-4c65-bd41-9ed53828d9fe",
      "renderPriority" : "NEUTRAL",
      "renditionMap" : { },
      "type" : "component"
    }, {
      "componentAttributes" : {
        "height" : "900",
        "pageName" : "VM_VolunteerApplication_Create",
        "recordId" : "{!recordId}"
      },
      "componentName" : "forceCommunity:visualforcePage",
      "id" : "70aa79a3-6a3c-4e11-bb02-ad307ef96b0b",
      "renderPriority" : "NEUTRAL",
      "renditionMap" : { },
      "type" : "component"
    } ],
    "id" : "d2da59f2-4201-440e-b610-6d5c6c465e8a",
    "regionName" : "content",
    "type" : "region"
  }, {
    "id" : "9abf3775-a9e2-415c-a8e1-a32cc0b31eaf",
    "regionName" : "footer",
    "type" : "region"
  }, {
    "components" : [ {
      "componentAttributes" : {
        "customHeadTags" : "",
        "description" : "",
        "title" : "New Application"
      },
      "componentName" : "forceCommunity:seoAssistant",
      "id" : "9acaa968-9351-4a49-911d-7f5f34139ef7",
      "renditionMap" : { },
      "type" : "component"
    } ],
    "id" : "778bf703-4ab6-4e13-afa5-2742fd4d9ff0",
    "regionName" : "sfdcHiddenRegion",
    "type" : "region"
  } ],
  "themeLayoutType" : "Inner",
  "type" : "view",
  "viewType" : "custom-new-application"
}