{
  "appPageId" : "c4703a2e-936f-4774-b03d-fb11ecfb7597",
  "componentName" : "siteforce:sldsOneColLayout",
  "id" : "5839754b-6da4-4a95-bb21-7bad29f1d4a4",
  "label" : "Report List",
  "regions" : [ {
    "id" : "2a03abf3-507d-4a13-8dc5-8b206517101b",
    "regionName" : "header",
    "type" : "region"
  }, {
    "components" : [ {
      "componentAttributes" : { },
      "componentName" : "forceCommunity:reportList",
      "id" : "4c6c9002-da18-4cfe-a187-ac6646222dae",
      "renderPriority" : "NEUTRAL",
      "renditionMap" : { },
      "type" : "component"
    } ],
    "id" : "9107bccf-f1c1-4067-8b14-22ec1b17bb74",
    "regionName" : "content",
    "type" : "region"
  }, {
    "id" : "791f8244-c673-4d4f-b221-54063269be91",
    "regionName" : "footer",
    "type" : "region"
  } ],
  "themeLayoutType" : "Inner",
  "type" : "view",
  "viewType" : "list-00O"
}