{
  "appPageId" : "c4703a2e-936f-4774-b03d-fb11ecfb7597",
  "componentName" : "siteforce:sldsOneColLayout",
  "id" : "3690503e-a41c-4917-a65b-df5c1cb91de0",
  "label" : "Role Related List",
  "regions" : [ {
    "id" : "99b18f91-7e21-4b6b-8e9c-b1c58819e918",
    "regionName" : "header",
    "type" : "region"
  }, {
    "components" : [ {
      "componentAttributes" : {
        "parentRecordId" : "{!parentRecordId}",
        "relatedListName" : "{!relatedListName}"
      },
      "componentName" : "forceCommunity:relatedList",
      "id" : "aac64519-daa0-4456-b25f-93dbf955cae0",
      "renderPriority" : "NEUTRAL",
      "renditionMap" : { },
      "type" : "component"
    } ],
    "id" : "fc73028d-d78c-4d61-b1a4-cd55b75f987d",
    "regionName" : "content",
    "type" : "region"
  }, {
    "id" : "9546c287-1ce8-4782-b60a-407f29951880",
    "regionName" : "footer",
    "type" : "region"
  } ],
  "themeLayoutType" : "Inner",
  "type" : "view",
  "viewType" : "relatedlist-a2x"
}