{
  "appPageId" : "c4703a2e-936f-4774-b03d-fb11ecfb7597",
  "componentName" : "siteforce:sldsOneColLayout",
  "id" : "40026f9c-a5ac-4988-975a-3a506b55a97c",
  "label" : "Search",
  "regions" : [ {
    "id" : "3103d322-24c3-49e4-8275-2f6aa4efae65",
    "regionName" : "header",
    "type" : "region"
  }, {
    "components" : [ {
      "componentAttributes" : {
        "scopes" : [ {
          "isPublic" : true,
          "name" : "Task"
        } ],
        "searchTerm" : "{!searchString}",
        "showTopResults" : false
      },
      "componentName" : "forceCommunity:search",
      "id" : "59bdcdef-5815-462e-a763-9821e63b88e3",
      "renderPriority" : "NEUTRAL",
      "renditionMap" : { },
      "type" : "component"
    } ],
    "id" : "c274948d-f915-4e81-a066-6c454d378a13",
    "regionName" : "content",
    "type" : "region"
  }, {
    "id" : "892d2c38-ae1b-41a6-9a2b-f5978f49d097",
    "regionName" : "footer",
    "type" : "region"
  } ],
  "themeLayoutType" : "Inner",
  "type" : "view",
  "viewType" : "global-search"
}