{
  "appPageId" : "c4703a2e-936f-4774-b03d-fb11ecfb7597",
  "componentName" : "siteforce:sldsOneColLayout",
  "id" : "7a151d51-263b-4fc0-af53-d641acbda32d",
  "label" : "Stream Related List",
  "regions" : [ {
    "id" : "b30a2d16-2702-4f0f-8e67-c817453a00fa",
    "regionName" : "header",
    "type" : "region"
  }, {
    "id" : "6c80d37e-870c-435a-9a39-9d6661bbcff4",
    "regionName" : "content",
    "type" : "region"
  }, {
    "id" : "146cdb78-b628-4d47-af0f-92bb327b8858",
    "regionName" : "footer",
    "type" : "region"
  } ],
  "themeLayoutType" : "Inner",
  "type" : "view",
  "viewType" : "relatedlist-0Fq"
}