{
  "appPageId" : "c4703a2e-936f-4774-b03d-fb11ecfb7597",
  "componentName" : "siteforce:sldsOneColLayout",
  "id" : "04be10d4-ed15-4aac-820a-8468a8f918d7",
  "label" : "Volunteer Application List",
  "regions" : [ {
    "components" : [ {
      "componentAttributes" : { },
      "componentName" : "c:VM_MessageDisplay",
      "id" : "1fe037ae-c258-42f3-83ac-c9b0f14374b6",
      "renderPriority" : "NEUTRAL",
      "renditionMap" : { },
      "type" : "component"
    } ],
    "id" : "b7c510ad-745e-4652-b99f-30075a9a5ff8",
    "regionName" : "header",
    "type" : "region"
  }, {
    "components" : [ {
      "componentAttributes" : {
        "filterName" : "00Bf1000003zNk0EAE",
        "layout" : "STANDARD",
        "pageSize" : 25,
        "scope" : "Job_Application__c",
        "showDisplay" : "showall"
      },
      "componentName" : "forceCommunity:objectHome",
      "id" : "46ec273c-bc6a-41da-b9d0-8fc19ab32492",
      "renderPriority" : "NEUTRAL",
      "renditionMap" : { },
      "type" : "component"
    } ],
    "id" : "692fd8a6-f236-4e4d-9e11-b34156602c55",
    "regionName" : "content",
    "type" : "region"
  }, {
    "id" : "1b7f9c39-8fba-4cf8-af0b-d441bf9d4555",
    "regionName" : "footer",
    "type" : "region"
  } ],
  "themeLayoutType" : "Inner",
  "type" : "view",
  "viewType" : "list-a2u"
}