{
  "cmsSettings" : { },
  "currentThemeId" : "d90d0431-b391-4494-90fe-a3f8ec9a3589",
  "headMarkup" : null,
  "id" : "be9ec60d-10ba-4af0-893f-c6bbc0e2d3ef",
  "isRelaxedCSPLevel" : false,
  "label" : "main",
  "templateName" : "Service Community Template",
  "type" : "appPage"
}