{
  "appPageId" : "92034fee-2a5a-4602-b58b-7f635d198d78",
  "componentName" : "siteforce:sldsOneColLayout",
  "id" : "c9b2c1f5-45a0-4878-b34c-e4df45d9dde8",
  "label" : "User Related List",
  "regions" : [ {
    "id" : "85709d90-fba9-451d-ab24-e4243092e97f",
    "regionName" : "header",
    "type" : "region"
  }, {
    "components" : [ {
      "componentAttributes" : {
        "customTitle" : "",
        "parentRecordId" : "{!recordId}",
        "relatedListName" : "{!relationshipApiName}",
        "showBreadCrumbs" : true,
        "showCustomTitle" : false,
        "showManualRefreshButton" : true,
        "showRowNumbers" : true
      },
      "componentName" : "forceCommunity:relatedList",
      "id" : "fcf54b50-88f4-4961-b23a-d5f7cdc4b0e2",
      "renderPriority" : "NEUTRAL",
      "renditionMap" : { },
      "type" : "component"
    } ],
    "id" : "dfe6df7e-3c3d-444f-b620-9753f8b2a4c5",
    "regionName" : "content",
    "type" : "region"
  }, {
    "id" : "244c34e4-fa7f-457b-8f03-81715d447b49",
    "regionName" : "footer",
    "type" : "region"
  } ],
  "themeLayoutType" : "Inner",
  "type" : "view",
  "viewType" : "relatedlist-005"
}