{
  "activeViewId" : "d8a09875-b572-42b0-a717-1758fbec07c2",
  "appPageId" : "be9ec60d-10ba-4af0-893f-c6bbc0e2d3ef",
  "configurationTags" : [ ],
  "id" : "b5bbd58c-8222-409a-82cf-d1b86ec6413f",
  "label" : "Contact Support",
  "pageAccess" : "UseParent",
  "routeType" : "contactsupport",
  "type" : "route",
  "urlPrefix" : "contactsupport"
}