{
  "activeViewId" : "a7fdc6d5-8203-4cca-bd45-56b2e2b48d7c",
  "appPageId" : "be9ec60d-10ba-4af0-893f-c6bbc0e2d3ef",
  "configurationTags" : [ ],
  "id" : "56477429-e09a-4bb8-8d8d-4dc15d6b6ddd",
  "label" : "Error",
  "pageAccess" : "UseParent",
  "routeType" : "error",
  "type" : "route",
  "urlPrefix" : "error"
}