{
  "activeViewId" : "23f15e41-7b2f-4512-8afd-23dc2f31e002",
  "appPageId" : "be9ec60d-10ba-4af0-893f-c6bbc0e2d3ef",
  "configurationTags" : [ ],
  "id" : "dd6d04c3-8d26-4cbe-9147-6162081fefc1",
  "label" : "File List",
  "routeType" : "list-069",
  "type" : "route",
  "urlPrefix" : "contentdocument"
}