{
  "activeViewId" : "06458fd8-7f09-40a0-9f45-6021538f44d2",
  "appPageId" : "be9ec60d-10ba-4af0-893f-c6bbc0e2d3ef",
  "configurationTags" : [ ],
  "id" : "7a1d37e8-05fb-4f65-b649-4302148a4761",
  "label" : "Quip Docs Related List",
  "pageAccess" : "UseParent",
  "routeType" : "extrelated-quip",
  "type" : "route",
  "urlPrefix" : "quip"
}