{
  "activeViewId" : "a329a576-a148-4e7d-9b21-7b00896a7bf1",
  "appPageId" : "be9ec60d-10ba-4af0-893f-c6bbc0e2d3ef",
  "configurationTags" : [ ],
  "id" : "7eb49f88-3dcb-4fa5-b52f-d008a0647fc9",
  "label" : "Stream Related List",
  "routeType" : "relatedlist-0Fq",
  "type" : "route",
  "urlPrefix" : "streams"
}