{
  "activeBrandingSetId" : "ccbd2121-4a33-45ac-8240-c969300198b5",
  "customCSS" : ".siteforceServiceBody .cHeaderOverlay {\n    background: #fff !important;\n}\n\n.countSortedByFilteredBy,\n.slds-button_icon-more, \n.downIcon,\n.slds-path__action,\n/* .actionsContainer .slds-button--neutral, */\n.forceCommunityGlobalSearchInput,\n.forceVirtualAutocompleteMenu,\n.inlineEditTooltipButton,\n.communityManageConsole {\n    display: none;\n}\n\n.logOut {\n    margin-top: -90px;\n}\n\n.siteforceThemeLayoutStarter * {\n\tfont-size: 1rem;\n}",
  "developerName" : "service",
  "id" : "d90d0431-b391-4494-90fe-a3f8ec9a3589",
  "label" : "Customer Service",
  "layouts" : {
    "Inner" : "763165f9-e404-4494-ab7a-5cee745e66c3",
    "Login" : "f8fa8c61-ce00-47a5-a09c-d185db1f7a1f",
    "ServiceNotAvailable" : "4ed04045-7e0d-450a-9d84-059f90597b2f"
  },
  "type" : "theme",
  "views" : [ {
    "componentAttributes" : { },
    "componentName" : "salesforceIdentity:loginBody2",
    "id" : "f8fa8c61-ce00-47a5-a09c-d185db1f7a1f",
    "label" : "Login",
    "regions" : [ {
      "id" : "2c6ccbb6-aaf2-4481-801a-4ac7791a11cb",
      "regionName" : "header",
      "type" : "region"
    }, {
      "id" : "983e84b6-7ebe-4008-80c3-07ccf9936d8b",
      "regionName" : "content",
      "type" : "region"
    }, {
      "id" : "a9ae6e51-4ce0-47f0-8d75-b1aeb7102643",
      "regionName" : "footer",
      "type" : "region"
    } ],
    "type" : "view"
  }, {
    "componentAttributes" : {
      "IsDefaultHeaderHidden" : false,
      "IsDefaultNotificationsHidden" : true,
      "fixedPageWidth" : 1140,
      "isPageWidthFixed" : true
    },
    "componentName" : "siteforce:serviceBody",
    "id" : "763165f9-e404-4494-ab7a-5cee745e66c3",
    "label" : "Default",
    "regions" : [ {
      "id" : "c693f359-48fe-41a5-b354-fc2a204d5c9e",
      "regionName" : "customHeader",
      "type" : "region"
    }, {
      "components" : [ {
        "componentAttributes" : {
          "maxAutoCompleteResults" : 5,
          "searchLabel" : "Search...",
          "searchObjects" : ""
        },
        "componentName" : "forceCommunity:globalSearchInput",
        "id" : "83ed8b51-6808-4cd6-b454-13cae695ebf0",
        "renditionMap" : { },
        "type" : "component"
      } ],
      "id" : "850ecd22-6b2b-4b00-b879-63ffac177150",
      "regionName" : "search",
      "type" : "region"
    }, {
      "components" : [ {
        "componentAttributes" : {
          "accountManagementLabel" : "Account Management",
          "communityBuilderLabel" : "",
          "communitySetupLabel" : "",
          "contactSupportLabel" : "Contact Support",
          "filterName" : "MyCases",
          "homeLabel" : "Home",
          "includeContactSupport" : false,
          "includeMessages" : false,
          "loginLabel" : "Login",
          "logoutLabel" : "Logout",
          "myAccountLabel" : "",
          "showAccountManagement" : false,
          "showUserSettings" : false,
          "userSettingsLabel" : "My Settings",
          "viewProfileLabel" : ""
        },
        "componentName" : "selfService:userProfileMenu",
        "id" : "42311bb3-cc4a-4bec-9666-f4a0d5d0729a",
        "renditionMap" : { },
        "type" : "component"
      } ],
      "id" : "99a5d27f-e719-4a98-8e11-7a1af40fa778",
      "regionName" : "profileMenu",
      "type" : "region"
    }, {
      "components" : [ {
        "componentAttributes" : {
          "NavigationMenuEditorRefresh" : "Default_Navigation4",
          "hideAppLauncher" : true,
          "hideHomeText" : false
        },
        "componentName" : "forceCommunity:globalNavigation",
        "id" : "ff22b14d-0276-4167-9c76-9a54be5dd306",
        "renditionMap" : { },
        "type" : "component"
      } ],
      "id" : "e2c17261-1bab-4c7d-9403-2e86f8dc3355",
      "regionName" : "navBar",
      "type" : "region"
    }, {
      "id" : "f62b5dd4-6695-4510-8999-21c2ceb8bd63",
      "regionName" : "customRegion",
      "type" : "region"
    }, {
      "id" : "447a3b64-93f8-41c6-b63d-a531e867e238",
      "regionName" : "footer",
      "type" : "region"
    }, {
      "id" : "197dca8f-239b-4f3f-8464-4ae83b4b7998",
      "regionName" : "newHeader",
      "type" : "region"
    }, {
      "id" : "1b69f81b-c62b-4b83-85bf-d6ad22bde435",
      "regionName" : "headerLogo",
      "type" : "region"
    }, {
      "id" : "2713f931-b2eb-4585-8fd6-14f16076a53a",
      "regionName" : "themeSubHeader",
      "type" : "region"
    }, {
      "id" : "a368bff0-46a8-4929-96d1-85198021f2b7",
      "regionName" : "templateHeader",
      "type" : "region"
    }, {
      "id" : "80f266d5-a9f9-47d4-9105-b8f676421e4e",
      "regionName" : "templateFooter",
      "type" : "region"
    }, {
      "id" : "6313b696-8f44-457d-82c1-a82ac9b53755",
      "regionName" : "header",
      "type" : "region"
    }, {
      "id" : "e221976d-d043-4742-8648-8719d9923dce",
      "regionName" : "templateHeaderTop",
      "type" : "region"
    }, {
      "id" : "17fdd752-915c-4154-af53-1bd89836dd76",
      "regionName" : "templateHeaderBottom",
      "type" : "region"
    }, {
      "id" : "094a52b7-3611-490d-838e-0ab4468e9438",
      "regionName" : "featuredTop",
      "type" : "region"
    }, {
      "id" : "98140eee-1122-408d-98eb-93acd314687c",
      "regionName" : "featuredBottom",
      "type" : "region"
    }, {
      "id" : "9114ba88-9e12-479e-8a55-61070ad12aff",
      "regionName" : "templateFooterBottom",
      "type" : "region"
    }, {
      "id" : "7cbc4da8-95ea-47cd-9902-839c4046d307",
      "regionName" : "backNav",
      "type" : "region"
    } ],
    "type" : "view"
  }, {
    "componentAttributes" : {
      "fixedPageWidth" : 1170,
      "headerBgColor" : "rgba(0, 0, 0, 0)",
      "isHeaderPinned" : false,
      "isHeroUnderHeader" : false,
      "isPageWidthFixed" : true,
      "showHeader" : true,
      "showHero" : true
    },
    "componentName" : "siteforce:themeLayoutStarter",
    "id" : "4ed04045-7e0d-450a-9d84-059f90597b2f",
    "label" : "ServiceNotAvailable",
    "regions" : [ {
      "id" : "520fbdc8-11ef-4bce-b4c9-9dd59a5721a2",
      "regionName" : "themeHeader",
      "type" : "region"
    }, {
      "id" : "048bfc83-24c8-4ba2-b0d3-7f96c099f514",
      "regionName" : "themeFooter",
      "type" : "region"
    } ],
    "type" : "view"
  } ]
}