{
  "activeViewId" : "33621452-1183-41f6-9ce4-b1e7a41b8582",
  "appPageId" : "c4703a2e-936f-4774-b03d-fb11ecfb7597",
  "configurationTags" : [ ],
  "id" : "8997daae-fe3f-45a4-b03c-b84ad2734114",
  "label" : "Dashboard Related List",
  "routeType" : "relatedlist-01Z",
  "type" : "route",
  "urlPrefix" : "dashboard"
}