{
  "activeViewId" : "8a82be4f-a55f-45ec-975b-5d6188ae39ce",
  "appPageId" : "c4703a2e-936f-4774-b03d-fb11ecfb7597",
  "configurationTags" : [ ],
  "id" : "e5577d99-e5a5-4da0-be1d-4d1b27bbb65c",
  "label" : "Group Detail",
  "routeType" : "detail-0F9",
  "type" : "route",
  "urlPrefix" : "group"
}