{
  "activeViewId" : "f47b6b69-0053-409d-8fd6-3b423a46f132",
  "appPageId" : "043d5828-9ca2-4588-85d3-7be3644513d5",
  "configurationTags" : [ ],
  "id" : "1f20938c-0bdd-48c7-a9c0-ac311fdeb712",
  "label" : "Login Error",
  "routeType" : "login-error",
  "type" : "route",
  "urlPrefix" : "error"
}