{
  "activeViewId" : "7b66eb18-6141-49ed-ade1-8145e6c4467c",
  "appPageId" : "c4703a2e-936f-4774-b03d-fb11ecfb7597",
  "configurationTags" : [ ],
  "id" : "2dcf8a50-aa4c-47bc-b17d-128fd6d6a79c",
  "label" : "Report Detail",
  "routeType" : "detail-00O",
  "type" : "route",
  "urlPrefix" : "report"
}