{
  "activeViewId" : "8255c8b3-2b38-43d5-a640-17c9acbf8ed5",
  "appPageId" : "c4703a2e-936f-4774-b03d-fb11ecfb7597",
  "configurationTags" : [ ],
  "id" : "7ae2ae26-6759-4679-b20e-b0f51bb7bb66",
  "label" : "Stream Detail",
  "routeType" : "detail-0Fq",
  "type" : "route",
  "urlPrefix" : "streams"
}