{
  "activeViewId" : "2a4cb181-0cc7-4471-a7ff-67e02d4f7afe",
  "appPageId" : "c4703a2e-936f-4774-b03d-fb11ecfb7597",
  "configurationTags" : [ ],
  "id" : "91971564-9f56-46b2-a7b1-469486be4ed7",
  "label" : "User Related List",
  "routeType" : "relatedlist-005",
  "type" : "route",
  "urlPrefix" : "profile"
}